Data_cleaning
…
## Warning in rbind(names(probs), probs_f): number of columns of result is not
## a multiple of vector length (arg 1)

## Warning: 33 parsing failures.
## row # A tibble: 5 x 5 col     row col               expected actual      file                     expected   <int> <chr>             <chr>    <chr>       <chr>                    actual 1  2466 data_valuemessage a double Port Morris './Data/Air_Quality.csv' file 2  2470 data_valuemessage a double Mt. Hope    './Data/Air_Quality.csv' row 3  2472 data_valuemessage a double Fordham     './Data/Air_Quality.csv' col 4  2473 data_valuemessage a double Marble Hill './Data/Air_Quality.csv' expected 5  2475 data_valuemessage a double Pelham Bay  './Data/Air_Quality.csv'
## ... ................. ... ....................................................................... ........ ....................................................................... ...... ....................................................................... .... ....................................................................... ... ....................................................................... ... ....................................................................... ........ .......................................................................
## See problems(...) for more details.

asthma_df %>% 
  group_by(year_description) %>% 
  summarize(counts = n())

## # A tibble: 57 x 2
##    year_description                counts
##    <chr>                            <int>
##  1 2-Year Winter Average 2009-2010     48
##  2 2005                               264
##  3 2005-2007                          960
##  4 2009-2011                          960
##  5 2013                               144
##  6 Annual Average 2009-2010           240
##  7 Bath Beach                           3
##  8 Belmont                              3
##  9 Briarwood                            3
## 10 Brighton Beach                       3
## # ... with 47 more rows
…
